
{
  "name" : "TimerSrvExe",
  "reportingBehavior" : "REPORTS-EXECUTION-STATE",
  "isExecutionManager" : 0,
  "processes" : [
    {
      "name" : "TimerSrvProcess",
      "shortNamePath" : "/ApplicationDeployment/Processes/TimerSrvProcess",
      "startupConfigs" : [
        {
          "shortNamePath" : "/Machines/StartupConfigSets/Startup_Configuration/TimerSrvStartup",
          "schedulingPolicy" : "SCHED_RR",
          "schedulingPriority" : 20,
          "options" : [
          ],
          "environmentVariables" : [
            {
              "key" : "AMSR_PROCESS_CONFIG_DIR",
              "value" : "./etc"
            },
            {
              "key" : "AMSR_EXECUTABLE_CONFIG_DIR",
              "value" : "./etc"
            }
          ],
          "executionDependency" : {
          },
          "functionGroups" : [
            {
              "name" : "TimerFG",
              "states" : [
                "on"
              ]
            }
          ],
          "cores" : {
            "shallRunOn" : [
              0
            ]
          }
        }
      ]
    }
  ],
  "generatorVersion" : {
    "name" : "amsr_em_exec_config",
    "commitId" : "4c4edd839990455b29293dc16d68579e4b4b804d"
  }
}
