
{
  "services" : [
    {
      "name" : "TimerSrv_GS2S_interfaceDeployment",
      "service_id" : 15079,
      "major_version" : 1,
      "minor_version" : 0,
      "methods" : [
        {
          "name" : "TimerReq",
          "id" : 1,
          "proto" : "udp"
        },
        {
          "name" : "TimerStGetter",
          "id" : 16385,
          "proto" : "udp"
        }
      ],
      "events" : [
        {
          "name" : "TimerStNotifier",
          "id" : 36865,
          "field" : true,
          "proto" : "udp"
        }
      ],
      "eventgroups" : [
        {
          "id" : 1,
          "events" : [
            36865
          ]
        }
      ]
    },
    {
      "name" : "SomeIpSI_TimerSrv",
      "service_id" : 37377,
      "major_version" : 1,
      "minor_version" : 0,
      "methods" : [
        {
          "name" : "SomeIpTimerCncl",
          "id" : 2,
          "proto" : "udp"
        },
        {
          "name" : "SomeIpTimerReq",
          "id" : 1,
          "proto" : "udp"
        },
        {
          "name" : "SomeIpTimerStGetter",
          "id" : 16385,
          "proto" : "udp"
        }
      ],
      "events" : [
        {
          "name" : "SomeIpTimerStNotifier",
          "id" : 36865,
          "field" : true,
          "proto" : "udp"
        }
      ],
      "eventgroups" : [
        {
          "id" : 1,
          "events" : [
            36865
          ]
        }
      ]
    }
  ],
  "required_service_instances" : [
    {
      "service_id" : 15079,
      "instance_id" : 1,
      "major_version" : 1,
      "minor_version" : 4294967295,
      "service_discovery" : {
        "initial_delay_min_ns" : 0,
        "initial_delay_max_ns" : 100000000,
        "initial_repetitions_base_delay_ns" : 30000000,
        "initial_repetitions_max" : 3,
        "ttl" : 3,
        "eventgroups" : [
          {
            "id" : 1,
            "ttl" : 3,
            "request_response_delay_min_ns" : 0,
            "request_response_delay_max_ns" : 0
          }
        ]
      },
      "required_signal_serialized_pdus" : [
      ],
      "port_mapping" : {
        "name" : "TimerSrv_GS2S_interfaceDeploymentRequiredInstanceMachine",
        "address" : "192.168.1.110",
        "network_mask" : "255.255.255.0",
        "udp_port" : 52230,
        "communication" : true,
        "service_discovery" : true
      }
    }
  ],
  "provided_service_instances" : [
    {
      "service_id" : 37377,
      "instance_id" : 1,
      "major_version" : 1,
      "minor_version" : 0,
      "service_discovery" : {
        "initial_delay_min_ns" : 0,
        "initial_delay_max_ns" : 100000000,
        "initial_repetitions_base_delay_ns" : 30000000,
        "initial_repetitions_max" : 3,
        "cyclic_offer_delay_ns" : 1000000000,
        "request_response_delay_min_ns" : 1500000000,
        "request_response_delay_max_ns" : 1500000000,
        "ttl" : 3,
        "eventgroups" : [
          {
            "id" : 1,
            "event_multicast_threshold" : 3
          }
        ]
      },
      "port_mappings" : [
        {
          "name" : "SomeIpSI_TimerSrvProvidedInstanceMachine",
          "address" : "192.168.1.110",
          "network_mask" : "255.255.255.0",
          "udp_port" : 51650,
          "communication" : true,
          "service_discovery" : true
        }
      ]
    }
  ],
  "network_endpoints" : [
    {
      "name" : "NE_CCU_Eth2",
      "address" : "192.168.1.110",
      "mtu" : 1500,
      "service_discovery" : {
        "multicast_address" : "239.192.255.251",
        "port" : 30490
      },
      "ports" : [
        {
          "proto" : "udp",
          "port" : 51650,
          "enable_so_linger" : "false"
        },
        {
          "proto" : "udp",
          "port" : 52230,
          "enable_so_linger" : "false"
        }
      ]
    }
  ],
  "generatorVersion" : {
    "name" : "amsr_someipbinding",
    "commitId" : "43b33f0283d4d61385b98a3599688499abd86a75"
  }
}
